INDEX VERSION 1.127+C:\Users\Raitis\Desktop\scala-workspace\.metadata\.plugins\org.eclipse.jdt.core
698677440.index
3206672931.index
703168351.index
3393655776.index
2329999284.index
3121427375.index
554568155.index
1073345956.index
2149191269.index
3480125223.index
2647754968.index
360286086.index
188737320.index
1091728235.index
3521463671.index
2279646695.index
1575262332.index
2430033298.index
1762831623.index
1652273449.index
756123611.index
1479648142.index
3944707878.index
2301176930.index
1364820562.index
2141372608.index
2079953971.index
1515261982.index
556223278.index
4000908188.index
3178183428.index
2203586111.index
2424481233.index
36749630.index
156291354.index
2087248285.index
2880326335.index
4194743264.index
2019727313.index
236139278.index
1130564026.index
1167025594.index
