<?xml version="1.0" encoding="UTF-8"?>
<session version="1.0">
<refactoring comment="Rename Java project &apos;Thursday-2-26-2015&apos; to &apos;Thursday-2-26&apos;&#x0D;&#x0A;- Original element: &apos;Thursday-2-26-2015&apos;&#x0D;&#x0A;- Renamed element: &apos;Thursday-2-26-2015&apos;&#x0D;&#x0A;- Update references to refactored element" description="Rename Java project &apos;Thursday-2-26-2015&apos;" flags="7" id="org.eclipse.jdt.ui.rename.java.project" input="=Thursday-2-26-2015" name="Thursday-2-26" references="true" stamp="1424973702944" version="1.0"/>
</session>