<?xml version="1.0" encoding="UTF-8"?>
<session version="1.0">
<refactoring accessors="true" comment="Delete element from project &apos;basics&apos;&#x0D;&#x0A;- Original project: &apos;basics&apos;&#x0D;&#x0A;- Original element: &apos;MyWorksheet1.sc&apos;" description="Delete element" element1="src/basics/MyWorksheet1.sc" elements="0" flags="589830" id="org.eclipse.jdt.ui.delete" resources="1" stamp="1424617452706" subPackages="false" version="1.0"/>
</session>