<?xml version="1.0" encoding="UTF-8"?>
<session version="1.0">
<refactoring accessors="true" comment="Delete element from project &apos;Lecture_4_Worksheet&apos;&#x0D;&#x0A;- Original project: &apos;Lecture_4_Worksheet&apos;&#x0D;&#x0A;- Original element: &apos;Draw.scala&apos;" description="Delete element" element1="src/Draw.scala" elements="0" flags="589830" id="org.eclipse.jdt.ui.delete" resources="1" stamp="1422548603839" subPackages="false" version="1.0"/>
</session>