21[Error] expected:
22
0.1[Error] expected:
4
0.1[Error] expected:
3.3
0.06[Error] expected:
530
0.4[Error] expected:
4
0.30000000000000004[Error] expected:
3.3
30.0[Error] expected:
530
0.30000000000000004[Error] expected:
3.3
30.0[Error] expected:
530
30.0[Error] expected:
3.3
8333.333333333334[Error] expected:
530
33.0[Error] expected:
3.3
8833.333333333334[Error] expected:
530
0[Error] expected:
1
0[Error] expected:
1
0[Error] expected:
1
0[Error] expected:
1
Early Grey[Error] expected:
Earl Grey
Jasmine Green sugar[Error] expected:
Jasmine Green + sugar
Earl Grey sugar milk[Error] expected:
Earl Grey milk sugar
Earl Grey sugar milk[Error] expected:
Earl Grey milk sugar
()[Error] expected:
Vector(1.0, 2.0, 3.0)
()[Error] expected:
Vector(1.0, 2.0, 3.0)
()[Error] expected:
Vector(1.0, 2.0, 3.0)
()[Error] expected:
Vector(1.0, 2.0, 3.0)
()[Error] expected:
Vector(1.0, 2.0, 3.0)
()[Error] expected:
Vector(1.0, 2.0, 3.0)
()[Error] expected:
Vector(1.0, 2.0, 3.0)
()[Error] expected:
Vector(1.0, 2.0, 3.0)
Vector(WrappedArray(1.0, 2.0, 3.0))[Error] expected:
Vector(1.0, 2.0, 3.0)
Vector()[Error] expected:
Vector(1.0, 2.0, 3.0)
Vector()[Error] expected:
Vector(1.0, 2.0, 3.0)
Vector(2.0, 3.0)[Error] expected:
Vector(1.0, 2.0, 3.0)
Vector(1, 2)[Error] expected:
Vector(1.0, 2.0, 3.0)
Vector(1, 2)[Error] expected:
Vector(1.0, 2.0, 3.0)
Vector(1, 2)[Error] expected:
Vector(1.0, 2.0, 3.0)
Vector(1, 2)[Error] expected:
Vector(1.0, 2.0, 3.0)
Vector(1, 2)[Error] expected:
Vector(1.0, 2.0, 3.0)
()[Error] expected:
Vector(1.0, 2.0, 3.0)
()[Error] expected:
List(10.0, 20.0)
()[Error] expected:
List(10.0, 20.0)
()[Error] expected:
List(10.0, 20.0)
12341,2,3,4,[Error] expected:
1,2,3,4
1,2,3,4,[Error] expected:
1,2,3,4
7354956[Error] expected:
7 35 49 56 
()[Error] expected:
Vector(21, 32, 43, 54)
()[Error] expected:
Vector(21, 32, 43, 54)
()[Error] expected:
Vector(21, 32, 43, 54)
()[Error] expected:
Vector(21, 32, 43, 54)
()[Error] expected:
Vector(21, 32, 43, 54)
